Chapter 4 - Stack Overflow questions
…
1.2 Joining data

questions_with_tags <- questions %>% 
  inner_join(question_tags, by = c("id" = "question_id")) %>% 
  inner_join(tags, by = c("tag_id" = "id"))
questions_with_tags

## # A tibble: 497,153 x 5
##          id creation_date score tag_id tag_name           
##       <dbl> <date>        <dbl>  <dbl> <chr>              
##  1 22557677 2014-03-21        1     18 regex              
##  2 22557677 2014-03-21        1    139 string             
##  3 22557677 2014-03-21        1  16088 time-complexity    
##  4 22557677 2014-03-21        1   1672 backreference      
##  5 22558084 2014-03-21        2   6419 time-series        
##  6 22558084 2014-03-21        2  92764 panel-data         
##  7 22558395 2014-03-21        2   5569 function           
##  8 22558395 2014-03-21        2    134 sorting            
##  9 22558395 2014-03-21        2   9412 vectorization      
## 10 22558395 2014-03-21        2  18621 operator-precedence
## #  with 497,143 more rows

1.3 Most common tags

questions_with_tags %>% 
  count(tag_name, sort = TRUE)

## # A tibble: 7,840 x 2
##    tag_name       n
##    <chr>      <int>
##  1 ggplot2    28228
##  2 dataframe  18874
##  3 shiny      14219
##  4 dplyr      14039
##  5 plot       11315
##  6 data.table  8809
##  7 matrix      6205
##  8 loops       5149
##  9 regex       4912
## 10 function    4892
## #  with 7,830 more rows
…
Summarize to get the total number of questions, num_questions, as well as the mean score for each question, score.

Arrange num_questions in descending order to sort the answers by the most asked questions.

questions_with_tags %>%
    # Group by tag_name
    group_by(tag_name) %>%
    # Get mean score and num_questions
    summarize(score = mean(score),
              num_questions = n()) %>%
    # Sort num_questions in descending order
    arrange(desc(num_questions))

## # A tibble: 7,841 x 3
##    tag_name   score num_questions
##    <chr>      <dbl>         <int>
##  1 only-r     1.26          48541
##  2 ggplot2    2.61          28228
##  3 dataframe  2.31          18874
##  4 shiny      1.45          14219
##  5 dplyr      1.95          14039
##  6 plot       2.24          11315
##  7 data.table 2.97           8809
##  8 matrix     1.66           6205
##  9 loops      0.743          5149
## 10 regex      2              4912
## #  with 7,831 more rows

1.4.3 What tags never appear on R questions?

The tags table includes all Stack Overflow tags, but some have nothing to do with R. How could you filter for just the tags that never appear on an R question? The tags and question_tags tables have been preloaded for you.

Use a join to determine which tags never appear on an R question.

# Using a join, filter for tags that are never on an R question
tags %>%
  anti_join(question_tags, 
            by = c("id" = "tag_id"))

## # A tibble: 40,459 x 2
##        id tag_name                 
##     <dbl> <chr>                    
##  1 124399 laravel-dusk             
##  2 124402 spring-cloud-vault-config
##  3 124404 spring-vault             
##  4 124405 apache-bahir             
##  5 124407 astc                     
##  6 124408 simulacrum               
##  7 124410 angulartics2             
##  8 124411 django-rest-viewsets     
##  9 124414 react-native-lightbox    
## 10 124417 java-module              
## #  with 40,449 more rows
…
## # A tibble: 6 x 4
##         id creation_date question_id score
##      <dbl> <date>              <dbl> <dbl>
## 1 39143713 2016-08-25       39143518     3
## 2 39143869 2016-08-25       39143518     1
## 3 39143935 2016-08-25       39142481     0
## 4 39144014 2016-08-25       39024390     0
## 5 39144252 2016-08-25       39096741     6
## 6 39144375 2016-08-25       39143885     5

questions %>% 
  inner_join(answers, by = c("id" = "question_id"))

## # A tibble: 380,643 x 6
##          id creation_date.x score.x     id.y creation_date.y score.y
##       <dbl> <date>            <dbl>    <dbl> <date>            <dbl>
##  1 22557677 2014-03-21            1 22560670 2014-03-21            2
##  2 22557707 2014-03-21            2 22558516 2014-03-21            1
##  3 22557707 2014-03-21            2 22558726 2014-03-21            4
##  4 22558084 2014-03-21            2 22558085 2014-03-21            0
##  5 22558084 2014-03-21            2 22606545 2014-03-24            1
##  6 22558084 2014-03-21            2 22610396 2014-03-24            5
##  7 22558084 2014-03-21            2 34374729 2015-12-19            0
##  8 22558395 2014-03-21            2 22559327 2014-03-21            1
##  9 22558395 2014-03-21            2 22560102 2014-03-21            2
## 10 22558395 2014-03-21            2 22560288 2014-03-21            2
## #  with 380,633 more rows
…
Use an inner join to combine the questions and answers tables using the suffixes "_question" and "_answer", respectively.

Subtract creation_date_question from creation_date_answer within the as.integer() function to create the gap column.

If your exercise is timing out, you are likely using the wrong columns for joining, causing the result to be too big! Check the join fields carefully!

In the questions table, the questions are identified by the id column, and by the question_id in the answers table.

questions %>%
    # Inner join questions and answers with proper suffixes
    inner_join(answers, by = c("id" = "question_id"), suffix = c("_question", "_answer")) %>% 
    # Subtract creation_date_question from creation_date_answer to create gap
    mutate(gap = as.integer(creation_date_answer - creation_date_question))

## # A tibble: 380,643 x 7
##          id creation_date_question score_question id_answer creation_date_answer
##       <dbl> <date>                          <dbl>     <dbl> <date>              
##  1 22557677 2014-03-21                          1  22560670 2014-03-21          
##  2 22557707 2014-03-21                          2  22558516 2014-03-21          
##  3 22557707 2014-03-21                          2  22558726 2014-03-21          
##  4 22558084 2014-03-21                          2  22558085 2014-03-21          
##  5 22558084 2014-03-21                          2  22606545 2014-03-24          
##  6 22558084 2014-03-21                          2  22610396 2014-03-24          
##  7 22558084 2014-03-21                          2  34374729 2015-12-19          
##  8 22558395 2014-03-21                          2  22559327 2014-03-21          
##  9 22558395 2014-03-21                          2  22560102 2014-03-21          
## 10 22558395 2014-03-21                          2  22560288 2014-03-21          
## #  with 380,633 more rows, and 2 more variables: score_answer <dbl>, gap <int>
…
Replace the NA values in the n column with 0s.

# Count and sort the question id column in the answers table
answer_counts <- answers %>%
    group_by(question_id) %>%
    summarize(n = n())

# Combine the answer_counts and questions tables
questions %>% 
    left_join(answer_counts, by = c("id" = "question_id")) %>%
    # Replace the NAs in the n column
    replace_na(list(n = 0))

## # A tibble: 294,735 x 4
##          id creation_date score     n
##       <dbl> <date>        <dbl> <dbl>
##  1 22557677 2014-03-21        1     1
##  2 22557707 2014-03-21        2     2
##  3 22558084 2014-03-21        2     4
##  4 22558395 2014-03-21        2     3
##  5 22558613 2014-03-21        0     1
##  6 22558677 2014-03-21        2     2
##  7 22558887 2014-03-21        8     1
##  8 22559180 2014-03-21        1     1
##  9 22559312 2014-03-21        0     1
## 10 22559322 2014-03-21        2     5
## #  with 294,725 more rows
…
Lets build on the last exercise by adding the tags table to our previous joins. This will allow us to do a better job of identifying which R topics get the most traction on Stack Overflow. The tables you created in the last exercise have been preloaded for you as answer_counts and question_answer_counts.

answer_counts <- answers %>% count(question_id, sort = TRUE)

question_answer_counts <- questions %>% left_join(answer_counts, by = c("id" = "question_id")) %>% replace_na(list(n = 0))

Combine the question_tags table with question_answer_counts using an inner_join. Now, use another inner_join to add the tags table.

question_answer_counts %>%
    # Join the question_tags tables
    inner_join(question_tags, by = c("id" = "question_id")) %>% 
    # Join the tags table
  inner_join(tags, by = c("tag_id" = "id"))

## # A tibble: 497,153 x 6
##          id creation_date score     n tag_id tag_name           
##       <dbl> <date>        <dbl> <dbl>  <dbl> <chr>              
##  1 22557677 2014-03-21        1     1     18 regex              
##  2 22557677 2014-03-21        1     1    139 string             
##  3 22557677 2014-03-21        1     1  16088 time-complexity    
##  4 22557677 2014-03-21        1     1   1672 backreference      
##  5 22558084 2014-03-21        2     4   6419 time-series        
##  6 22558084 2014-03-21        2     4  92764 panel-data         
##  7 22558395 2014-03-21        2     3   5569 function           
##  8 22558395 2014-03-21        2     3    134 sorting            
##  9 22558395 2014-03-21        2     3   9412 vectorization      
## 10 22558395 2014-03-21        2     3  18621 operator-precedence
## #  with 497,143 more rows
…
Summarize tagged_answers to get the count of questions and the average_answers.

Sort the resulting questions column in descending order.

tagged_answers %>%
    # Aggregate by tag_name
  group_by(tag_name) %>%   
    # Summarize questions and average_answers
    summarize(questions = n(),
              average_answers = mean(n)) %>%
    # Sort the questions in descending order
  arrange(desc(questions))

## # A tibble: 7,840 x 3
##    tag_name   questions average_answers
##    <chr>          <int>           <dbl>
##  1 ggplot2        28228           1.15 
##  2 dataframe      18874           1.67 
##  3 shiny          14219           0.921
##  4 dplyr          14039           1.55 
##  5 plot           11315           1.23 
##  6 data.table      8809           1.47 
##  7 matrix          6205           1.45 
##  8 loops           5149           1.39 
##  9 regex           4912           1.91 
## 10 function        4892           1.30 
## #  with 7,830 more rows
…
